{
  "cviceni": {
    "version": {
      "global": "<%= version %>",
      "content": 1
    },
    "katalog": [
      "test"
    ],
    "language": "cs",
    "slug": "co-prinesla-nova-univerzita",
    "nazev": "Co přinesla nová univerzita?",
    "autor": [
      "Václav Sixta"
    ],
    "casovaOsa": {
      "roky": [
        1971
      ],
      "epocha": {
        "svetova": [
          "studená válka a rozpad koloniálních říší"
        ],
        "ceska": [
          "normalizace"
        ]
      }
    },
    "klicovaSlova": [
      "dekolonizace",
      "vzdělávání",
      "dobové perspektivy",
      "měníme pohledy"
    ],
    "anotace": {
      "ucitel": "Cvičení ukazuje téma vztahu Českolsovenska k zemí tzv. třetího světa n apříkladu Univerzity 17. listopadu. Žáci pátrají v pramenech po účelu založení této instituce a pokouší se na její existenci dívat z více úhlů pohledu. Co znamenala pro Československo, co pro partnerské země a co pro samotné studenty? Cvičení může vytvořit prostor pro propojení československých dějin s dějinami studené války a dekolonizace.",
      "verejna": "Za jakým účelem přijížděli do socialistického československa afričtí studenti? Pátrejte v pramenech, které souvisí s dnes již zaniklou Univerzitou 17. listopadu."
    },
    "obtiznost": "stredni",
    "trvani": 25,
    "funkce": [
      "lupa",
      "cteni",
      "text",
      "text-editor"
    ],
    "pdf": {
      "doporucenyPostup": "co-prinesla-nova-univerzita.pdf"
    },
    "uvodniObrazek": "co-prinesla-nova-univerzita/pic-06-1280w.jpg",
    "id": 112
  },
  "slajd": [
    {
      "zadani": {
        "hlavni": "Přečtěte si text.",
        "rozsirujici": ""
      },
      "napoveda": {
        "aktivity": [
          "lupa",
          "cteni"
        ],
        "text": "Kliknutím levého tlačítka do obrazu a jeho podržením lupa přiblíží část obrazu ve výřezu."
      },
      "textovyEditor": {
        "galerie": [
          {
            "soubor": "co-prinesla-nova-univerzita/pic-00-1024h.jpg"
          },
          {
            "soubor": "co-prinesla-nova-univerzita/pic-01-1024h.jpg"
          }
        ],
        "texty": [
          {
            "id": "clanek1",
            "text": "text-00",
            "funkce": "cteni"
          }
        ]
      },
      "popisky": [
        "Přepis přeložen ze slovenštiny. Deset let University 17. listopadu v Praze 1961–1971. Praha 1971. Zdroj: NA ČR"
      ]
    },
    {
      "class": [
        "half-slide-previous"
      ],
      "zadani": {
        "hlavni": "Proč vznikla Univerzita 17. listopadu?",
        "rozsirujici": "Označte v textu pasáže, které popisují účel vzniku nové univerzity?"
      },
      "napoveda": {
        "aktivity": [
          "lupa",
          "cteni"
        ],
        "text": "Kliknutím levého tlačítka do obrazu a jeho podržením lupa přiblíží část obrazu ve výřezu."
      },
      "textovyEditor": {
        "galerie": [
          {
            "soubor": "co-prinesla-nova-univerzita/pic-00-1024h.jpg"
          },
          {
            "soubor": "co-prinesla-nova-univerzita/pic-01-1024h.jpg"
          }
        ],
        "texty": [
          {
            "id": "clanek2",
            "text": "text-00",
            "funkce": "zvyraznovani",
            "menu": [
              {
                "title": "účel univerzity",
                "commandName": "ucel",
                "classes": "text-blue",
                "command": "toggle-class",
                "commandOptions": {
                  "toggleClass": "node-selected node-text-blue",
                  "closeBtn": true,
                  "comments": false,
                  "commentsClass": "text-blue"
                }
              }
            ]
          }
        ]
      },
      "popisky": [
        "Přepis přeložen ze slovenštiny. Deset let University 17. listopadu v Praze 1961–1971. Praha 1971.<br> Zdroj: NA ČR"
      ]
    },
    {
      "class": [
        "half-slide-active"
      ],
      "zadani": {
        "hlavni": "Proč vznikla Univerzita 17. listopadu?",
        "rozsirujici": ""
      },
      "napoveda": {
        "aktivity": [
          "text"
        ],
        "text": "Do boxu pro text zapisujete odpověď na otázku, nebo jiný komentář (dle zadání)."
      },
      "uzivatelskyText": {
        "otazky": [
          {
            "id": "otazka1",
            "zadani": "Za jakým účelem podle oficiálního textu univerzita vznikla?",
            "instrukce": "Myslím si, že…",
            "maxDelka": 400
          }
        ]
      }
    },
    {
      "zadani": {
        "hlavni": "Seznamte se s dalšími prameny a nové informace si poznamenejte.",
        "rozsirujici": ""
      },
      "napoveda": {
        "aktivity": [
          "text"
        ],
        "text": "Do boxu pro text zapisujete odpověď na otázku, nebo jiný komentář (dle zadání)."
      },
      "uzivatelskyText": {
        "galerie": [
          {
            "soubor": "co-prinesla-nova-univerzita/pic-02-1024h.jpg",
            "popisek": "Současná situace na Universitě 17. listopadu, 1973. Zápis z předsednictva ÚV KSČ. Zdroj: NA ČR"
          },
          {
            "soubor": "co-prinesla-nova-univerzita/pic-03-1024h.jpg",
            "popisek": "Josef Hotmar: Afrika první generace, Praha 1976. Zdroj: NK ČR"
          },
          {
            "soubor": "co-prinesla-nova-univerzita/pic-04-810w.jpg",
            "popisek": "Poštovní známka ke Dni přátelství československého a afrického lidu, 1961. Zdroj: archiv autora"
          },
          {
            "soubor": "co-prinesla-nova-univerzita/pic-05-1280w.jpg",
            "popisek": "President Ghany dr. Kwame Nhrumah při návštěvě Československa 3. srpna 1961. Foto Josef Mucha. Zdroj: ČTK"
          },
          {
            "soubor": "co-prinesla-nova-univerzita/pic-06-1280w.jpg",
            "popisek": "Studenti Univerzity 17. listopadu před budovou univerzity. Foto Jindřich Šaroch. Zdroj: ČTK"
          },
          {
            "typ": "text",
            "objekt": "Rozhovor se srílanským režisérem a překladatelem Piyasirim Gunaratnou, který vystudoval v Československu FAMU (1960–1965) a poté se vrátil na Srí Lanku.Natočil jste pak ještě celovečerní film… <br>V roce 1965 jsem se vrátil na Srí Lanku a chtěl jsem točit filmy. Námět pro svůj první celovečerní snímek jsem napsal cestou domů. Založili jsme s desítkou dalších lidí produkční společnost a začali natáčet. Snímek Mokada Vune (Co se stalo) sklidil pozitivní kritiky, ale komerčně propadl, takže jsem musel dokonce prodat auto, abych zaplatil dluhy. <br>V té době kina málokdy promítala domácí produkci, většinou se chodilo na tamilské, indické a anglické filmy. Místní produkce byla tak trochu chaotická. Točit mohl každý, kdo sehnal peníze – filmový materiál byl drahý a pašoval se z jižní Indie. Režisérem se většinou stával kameraman. Scénáře se nepoužívaly, jednalo se vesměs o kopie tamilských filmů, proto taky ani neexistovala funkce scénáristy – jen autora dialogů. <br>Inicioval jsem proto spolu s dalšími vznik instituce Státní film, jež byla zodpovědná za dovoz a distribuci filmů a zároveň za organizaci filmového průmyslu na Srí Lance. Většina tvůrců neuměla psát scénáře, proto jsem napsal učebnici, první svého druhu na Srí Lance. Sinhálská kinematografie tak začala koncem sedmdesátých let získávat mezinárodní uznání. S následující pravicovou vládou ovšem začalo období korupce a perzekuce.<br>Zdroj: Tereza Stejskalová: Filmaři všech zemí, spojte se!, Praha 2018"
          }
        ],
        "layout": "velka-galerie",
        "otazky": [
          {
            "id": "otazka2",
            "zadani": "Nové informace:",
            "instrukce": "Chci si poznamenat...",
            "minDelka": 20,
            "maxDelka": 999,
            "vyska": 10
          }
        ]
      }
    },
    {
      "zadani": {
        "hlavni": "Odpovězte na otázky.",
        "rozsirujici": "Co přinesla nová univerzita..."
      },
      "napoveda": {
        "aktivity": [
          "text"
        ],
        "text": ""
      },
      "uzivatelskyText": {
        "otazky": [
          {
            "id": "text1",
            "zadani": "studentům?",
            "instrukce": "Myslím si, že…",
            "minDelka": 2,
            "maxDelka": 400,
            "vyska": 3
          },
          {
            "id": "text2",
            "zadani": "československému státu?",
            "instrukce": "Myslím si, že…",
            "minDelka": 2,
            "maxDelka": 400,
            "vyska": 3
          },
          {
            "id": "text3",
            "zadani": "zemím původu studentů?",
            "instrukce": "Myslím si, že…",
            "minDelka": 2,
            "maxDelka": 400,
            "vyska": 3
          }
        ]
      }
    }
  ]
}
